<?xml version="1.0" encoding="UTF-8"?>
<!DOCTYPE svg PUBLIC "-//W3C//DTD SVG 1.1//EN" "http://www.w3.org/Graphics/SVG/1.1/DTD/svg11.dtd">
<!-- Creator: CorelDRAW 2018 (64 Bit) -->
<svg xmlns="http://www.w3.org/2000/svg" xml:space="preserve" width="175px" height="32px" version="1.1" style="shape-rendering:geometricPrecision; text-rendering:geometricPrecision; image-rendering:optimizeQuality; fill-rule:evenodd; clip-rule:evenodd"
viewBox="0 0 54.692 9.886"
 xmlns:xlink="http://www.w3.org/1999/xlink">
 <defs>
  <style type="text/css">
   <![CDATA[
    .fil1 {fill:white}
    .fil0 {fill:white;fill-rule:nonzero}
   ]]>
  </style>
 </defs>
 <g id="Camada_x0020_1">
  <metadata id="CorelCorpID_0Corel-Layer"/>
  <g id="_2440846614752">
   <path class="fil0" d="M4.157 3.219l-3.044 0 -1.113 5.239 3.142 0 0.241 -1.105 -1.797 0 0.226 -1.082 1.308 0 0.225 -1.068 -1.308 0 0.188 -0.879 1.601 0 0.331 -1.105zm3.736 5.239l-0.473 -5.239 -1.399 0 -2.796 5.239 1.466 0 0.496 -1.007 1.24 0 0.06 1.007 1.406 0zm-1.511 -3.736c-0.02,0.1 -0.036,0.219 -0.049,0.357 -0.012,0.138 -0.016,0.265 -0.011,0.38l0.038 0.955 -0.669 0 0.368 -0.857c0.08,-0.181 0.146,-0.34 0.199,-0.478 0.053,-0.138 0.094,-0.257 0.124,-0.357zm6.555 0.12c0,-0.345 -0.05,-0.625 -0.15,-0.838 -0.1,-0.213 -0.229,-0.377 -0.387,-0.492 -0.158,-0.115 -0.337,-0.193 -0.538,-0.233 -0.2,-0.04 -0.398,-0.06 -0.594,-0.06l-1.849 0 -1.112 5.239 1.901 0c0.351,0 0.662,-0.06 0.933,-0.18 0.27,-0.121 0.506,-0.281 0.706,-0.481 0.201,-0.201 0.371,-0.429 0.511,-0.684 0.141,-0.256 0.253,-0.518 0.339,-0.786 0.085,-0.268 0.146,-0.531 0.184,-0.789 0.037,-0.258 0.056,-0.49 0.056,-0.696zm-1.473 0.086c0,0.116 -0.01,0.256 -0.03,0.423 -0.02,0.167 -0.05,0.338 -0.09,0.517 -0.041,0.18 -0.092,0.359 -0.155,0.537 -0.062,0.179 -0.135,0.338 -0.218,0.476 -0.082,0.139 -0.176,0.252 -0.281,0.339 -0.106,0.089 -0.221,0.133 -0.346,0.133l-0.451 0 0.639 -3.029 0.413 0c0.075,0 0.145,0.006 0.211,0.019 0.065,0.012 0.12,0.038 0.165,0.078 0.045,0.042 0.08,0.102 0.105,0.182 0.025,0.08 0.038,0.189 0.038,0.325z"/>
   <path class="fil0" d="M28.743 5.068c-0.14,-0.109 -0.316,-0.192 -0.528,-0.25 -0.212,-0.057 -0.446,-0.086 -0.702,-0.086 -0.199,0 -0.401,0.03 -0.604,0.092 -0.203,0.061 -0.386,0.15 -0.549,0.265 -0.163,0.116 -0.295,0.259 -0.397,0.431 -0.102,0.172 -0.152,0.368 -0.152,0.589 0,0.203 0.063,0.379 0.189,0.528 0.126,0.149 0.294,0.257 0.504,0.323l0.405 0.126c0.105,0.032 0.183,0.068 0.234,0.108 0.051,0.04 0.076,0.092 0.076,0.155 0,0.077 -0.019,0.141 -0.058,0.192 -0.038,0.051 -0.086,0.092 -0.144,0.124 -0.058,0.031 -0.121,0.053 -0.189,0.065 -0.069,0.012 -0.134,0.019 -0.198,0.019 -0.189,0 -0.369,-0.03 -0.541,-0.09 -0.172,-0.059 -0.314,-0.128 -0.426,-0.205l-0.488 0.736c0.164,0.098 0.349,0.178 0.554,0.239 0.205,0.062 0.446,0.092 0.723,0.092 0.224,0 0.45,-0.03 0.678,-0.089 0.228,-0.06 0.433,-0.152 0.617,-0.276 0.184,-0.124 0.333,-0.28 0.447,-0.468 0.114,-0.187 0.171,-0.409 0.171,-0.665 0,-0.126 -0.025,-0.235 -0.074,-0.328 -0.049,-0.093 -0.111,-0.172 -0.186,-0.237 -0.076,-0.065 -0.159,-0.117 -0.25,-0.157 -0.091,-0.041 -0.177,-0.073 -0.257,-0.098l-0.358 -0.105c-0.112,-0.031 -0.189,-0.072 -0.231,-0.123 -0.042,-0.051 -0.063,-0.104 -0.063,-0.161 0,-0.056 0.014,-0.104 0.042,-0.144 0.028,-0.04 0.063,-0.073 0.105,-0.097 0.042,-0.025 0.088,-0.043 0.139,-0.056 0.051,-0.012 0.101,-0.018 0.15,-0.018 0.133,0 0.269,0.021 0.407,0.063 0.139,0.042 0.264,0.104 0.376,0.184l0.578 -0.678zm2.817 -0.273l-2.128 0 -0.778 3.663 2.197 0 0.168 -0.772 -1.256 0 0.158 -0.757 0.914 0 0.158 -0.747 -0.915 0 0.132 -0.615 1.119 0 0.231 -0.772zm3.275 1.282c0,-0.185 -0.021,-0.361 -0.063,-0.525 -0.042,-0.165 -0.113,-0.308 -0.213,-0.429 -0.101,-0.121 -0.234,-0.216 -0.4,-0.286 -0.167,-0.07 -0.373,-0.105 -0.619,-0.105 -0.281,0 -0.529,0.042 -0.745,0.126 -0.216,0.084 -0.404,0.195 -0.566,0.334 -0.161,0.138 -0.296,0.296 -0.405,0.473 -0.108,0.177 -0.197,0.359 -0.263,0.546 -0.067,0.188 -0.115,0.373 -0.145,0.555 -0.03,0.182 -0.045,0.345 -0.045,0.489 0,0.399 0.112,0.71 0.335,0.932 0.222,0.223 0.58,0.334 1.07,0.334 0.141,0.042 0.256,0.1 0.346,0.174 0.089,0.073 0.175,0.144 0.257,0.213 0.083,0.068 0.174,0.127 0.272,0.178 0.098,0.051 0.226,0.077 0.384,0.077 0.056,0 0.105,-0.001 0.147,-0.003 0.042,-0.002 0.083,-0.006 0.121,-0.013l0.316 -0.584c-0.031,0.004 -0.068,0.006 -0.111,0.006 -0.038,0 -0.08,0 -0.126,0 -0.084,0 -0.156,-0.012 -0.215,-0.035 -0.06,-0.022 -0.114,-0.05 -0.163,-0.084 -0.05,-0.033 -0.097,-0.067 -0.141,-0.102 -0.043,-0.035 -0.09,-0.063 -0.139,-0.084 0.165,-0.098 0.308,-0.214 0.427,-0.347 0.119,-0.133 0.22,-0.273 0.302,-0.418 0.082,-0.145 0.15,-0.292 0.201,-0.439 0.05,-0.147 0.089,-0.285 0.115,-0.415 0.027,-0.13 0.044,-0.245 0.053,-0.344 0.009,-0.1 0.013,-0.175 0.013,-0.224zm-1.051 -0.121c0,0.049 -0.005,0.129 -0.013,0.239 -0.009,0.111 -0.027,0.234 -0.053,0.368 -0.026,0.135 -0.06,0.275 -0.102,0.418 -0.042,0.144 -0.098,0.275 -0.166,0.394 -0.068,0.12 -0.15,0.217 -0.244,0.292 -0.095,0.075 -0.207,0.113 -0.337,0.113 -0.14,0 -0.249,-0.035 -0.328,-0.105 -0.079,-0.07 -0.119,-0.196 -0.119,-0.378 0,-0.088 0.008,-0.194 0.022,-0.318 0.014,-0.125 0.036,-0.254 0.068,-0.389 0.031,-0.135 0.072,-0.27 0.121,-0.405 0.049,-0.135 0.108,-0.255 0.176,-0.36 0.068,-0.105 0.148,-0.191 0.239,-0.258 0.091,-0.066 0.193,-0.099 0.305,-0.099 0.143,0 0.251,0.031 0.323,0.094 0.072,0.063 0.108,0.195 0.108,0.394zm4.704 -1.161l-0.941 0 -0.51 2.407c-0.038,0.179 -0.097,0.315 -0.176,0.407 -0.079,0.093 -0.202,0.14 -0.37,0.14 -0.127,0 -0.216,-0.031 -0.268,-0.092 -0.053,-0.062 -0.079,-0.145 -0.079,-0.25 0,-0.06 0.008,-0.133 0.026,-0.221l0.51 -2.391 -0.946 0 -0.547 2.554c-0.014,0.056 -0.024,0.11 -0.029,0.16 -0.005,0.051 -0.008,0.101 -0.008,0.15 0,0.168 0.034,0.309 0.103,0.421 0.068,0.112 0.157,0.2 0.268,0.265 0.11,0.065 0.235,0.111 0.373,0.137 0.138,0.026 0.28,0.039 0.423,0.039 0.326,0 0.59,-0.039 0.791,-0.118 0.202,-0.079 0.36,-0.175 0.476,-0.289 0.115,-0.114 0.197,-0.232 0.244,-0.355 0.048,-0.123 0.08,-0.226 0.097,-0.31l0.563 -2.654zm2.848 0l-2.128 0 -0.778 3.663 2.197 0 0.168 -0.772 -1.256 0 0.158 -0.757 0.914 0 0.158 -0.747 -0.915 0 0.132 -0.615 1.119 0 0.231 -0.772zm3.259 0l-0.893 0 -0.242 1.135c-0.014,0.06 -0.028,0.126 -0.042,0.2 -0.014,0.073 -0.028,0.147 -0.042,0.221 -0.014,0.073 -0.026,0.145 -0.037,0.215 -0.01,0.07 -0.017,0.131 -0.021,0.184 -0.017,-0.123 -0.04,-0.245 -0.068,-0.368 -0.028,-0.123 -0.058,-0.233 -0.09,-0.331l-0.399 -1.256 -0.904 0 -0.778 3.663 0.894 0 0.22 -1.03c0.049,-0.228 0.084,-0.422 0.105,-0.583 0.021,-0.162 0.034,-0.277 0.037,-0.347 0.018,0.119 0.038,0.24 0.061,0.362 0.022,0.123 0.048,0.232 0.076,0.326l0.378 1.272 0.967 0 0.778 -3.663zm3.17 0.205c-0.092,-0.077 -0.216,-0.141 -0.374,-0.192 -0.157,-0.051 -0.347,-0.076 -0.567,-0.076 -0.291,0 -0.542,0.044 -0.752,0.131 -0.21,0.088 -0.399,0.205 -0.568,0.352 -0.143,0.13 -0.268,0.277 -0.373,0.442 -0.105,0.164 -0.191,0.338 -0.26,0.52 -0.068,0.182 -0.119,0.369 -0.152,0.56 -0.034,0.191 -0.05,0.377 -0.05,0.56 0,0.185 0.029,0.353 0.087,0.502 0.057,0.148 0.141,0.277 0.252,0.386 0.11,0.108 0.246,0.192 0.407,0.25 0.161,0.057 0.344,0.086 0.547,0.086 0.27,0 0.506,-0.035 0.709,-0.105 0.204,-0.07 0.375,-0.159 0.515,-0.268l-0.278 -0.652c-0.123,0.091 -0.236,0.156 -0.339,0.195 -0.104,0.038 -0.215,0.058 -0.334,0.058 -0.137,0 -0.252,-0.044 -0.347,-0.132 -0.094,-0.087 -0.142,-0.224 -0.142,-0.41 0,-0.136 0.013,-0.279 0.037,-0.428 0.025,-0.149 0.058,-0.294 0.1,-0.434 0.042,-0.14 0.09,-0.266 0.144,-0.378 0.055,-0.112 0.112,-0.2 0.171,-0.263 0.088,-0.091 0.173,-0.154 0.255,-0.189 0.083,-0.035 0.175,-0.053 0.276,-0.053 0.102,0 0.196,0.014 0.284,0.042 0.088,0.028 0.166,0.072 0.236,0.132l0.516 -0.636zm1.492 -0.205l-0.962 0 -0.778 3.663 0.962 0 0.778 -3.663zm2.786 3.663l-0.331 -3.663 -0.978 0 -1.955 3.663 1.025 0 0.347 -0.704 0.867 0 0.042 0.704 0.983 0zm-1.057 -2.612c-0.014,0.07 -0.025,0.153 -0.034,0.25 -0.009,0.096 -0.011,0.184 -0.008,0.265l0.027 0.668 -0.468 0 0.257 -0.6c0.056,-0.126 0.103,-0.237 0.14,-0.333 0.036,-0.097 0.065,-0.18 0.086,-0.25zm3.706 1.84l-1.246 0 0.615 -2.891 -0.951 0 -0.778 3.663 2.018 0 0.342 -0.772z"/>
   <path class="fil1" d="M17.653 5.852c-0.696,0 -1.031,-0.057 -1.389,-0.291 -0.526,-0.344 -0.922,-1.022 -0.63,-1.91 0.266,-0.908 0.993,-1.585 1.78,-1.948 0.479,-0.22 0.894,-0.275 1.555,-0.275l-0.54 1.818 -0.074 0c-0.193,0 -0.371,0 -0.509,0.064 -0.152,0.069 -0.297,0.168 -0.366,0.333 -0.061,0.151 0.008,0.283 0.102,0.346 0.063,0.042 0.132,0.072 0.261,0.072l0.344 0 -0.534 1.791zm-2.922 -4.581l7.145 -1.26c0.401,-0.07 0.787,0.2 0.858,0.601l0.144 0.816 -3.409 0 -0.542 1.818 4.271 0 0.796 4.511c0.07,0.401 -0.2,0.787 -0.601,0.858l-7.145 1.259c-0.401,0.071 -0.787,-0.199 -0.858,-0.6l-0.144 -0.816 1.631 0 0.534 -1.794 -2.481 0 -0.8 -4.535c-0.07,-0.401 0.2,-0.787 0.601,-0.858zm3.957 2.79l-0.534 1.791 4.455 0 0.531 -1.791 -4.452 0zm-0.776 2.603l-0.534 1.794 4.454 0 0.535 -1.794 -4.455 0z"/>
  </g>
 </g>
</svg>
